VHDL/Shift Register/shift_reg_tb.vcd
$date
  Fri May 01 16:07:25 2020
$end
$version
  GHDL v0
$end
$timescale
  1 fs
$end
$var reg 1 ! clk $end
$var reg 1 " rst $end
$var reg 1 # data_in $end
$var reg 8 $ data_out[7:0] $end
$scope module shift_reg_inst $end
$var reg 1 % clk $end
$var reg 1 & rst $end
$var reg 1 ' data_in $end
$var reg 8 ( data_out[7:0] $end
$var reg 8 ) internal_reg[7:0] $end
$upscope $end
$enddefinitions $end
#0
0!
1"
U#
b00000000 $
0%
1&
U'
b00000000 (
b00000000 )
#5000000
1!
1%
#10000000
0!
0%
#15000000
1!
1%
#20000000
0!
0%
#25000000
1!
1%
#30000000
0!
0%
#35000000
1!
1%
#40000000
0!
0%
#45000000
1!
1%
#50000000
0!
0%
#55000000
1!
1%
#60000000
0!
0%
#65000000
1!
1%
#70000000
0!
0%
#75000000
1!
1%
#80000000
0!
0%
#85000000
1!
1%
#90000000
0!
0%
#95000000
1!
1%
#100000000
0!
0"
0%
0&
#105000000
1!
1#
b0000000U $
1%
1'
b0000000U (
b0000000U )
#110000000
0!
0%
#115000000
1!
0#
b000000U1 $
1%
0'
b000000U1 (
b000000U1 )
#120000000
0!
0%
#125000000
1!
1#
b00000U10 $
1%
1'
b00000U10 (
b00000U10 )
#130000000
0!
0%
#135000000
1!
0#
b0000U101 $
1%
0'
b0000U101 (
b0000U101 )
#140000000
0!
0%
#145000000
1!
1#
b000U1010 $
1%
1'
b000U1010 (
b000U1010 )
#150000000
0!
0%
#155000000
1!
0#
b00U10101 $
1%
0'
b00U10101 (
b00U10101 )
#160000000
0!
0%
#165000000
1!
1#
b0U101010 $
1%
1'
b0U101010 (
b0U101010 )
#170000000
0!
0%
#175000000
1!
0#
bU1010101 $
1%
0'
bU1010101 (
bU1010101 )
#180000000
0!
0%
#185000000
1!
b10101010 $
1%
b10101010 (
b10101010 )
#190000000
0!
0%
#195000000
1!
b01010100 $
1%
b01010100 (
b01010100 )
#200000000
0!
0%
#205000000
1!
b10101000 $
1%
b10101000 (
b10101000 )
#210000000
0!
0%
#215000000
1!
b01010000 $
1%
b01010000 (
b01010000 )
#220000000
0!
0%
#225000000
1!
b10100000 $
1%
b10100000 (
b10100000 )
#230000000
0!
0%
#235000000
1!
b01000000 $
1%
b01000000 (
b01000000 )
#240000000
0!
0%
#245000000
1!
b10000000 $
1%
b10000000 (
b10000000 )
#250000000
0!
0%
#255000000
1!
b00000000 $
1%
b00000000 (
b00000000 )
